﻿{
  "credential": {
    "userName": "ktc@@manulife.com.th.thfoxd1",
    "password": "P@ssw0rd",
    "token": ""
  },

  "connectedApp": {
    "consumerKey": "3MVG9e2mBbZnmM6mAOLXBAPTQz3a5wK_A.T17TMuR6lMZ0og1rvB1J7LBDxO8v9RhDkYGkeWsGEev4CIBwZv1",
    "consumerSecret": "4198040970818566524"
  },

  "apiConfig": {
    "apiVersion": "39.0",
    "loginUrl" : "https://test.salesforce.com"
  }
}
